<?xml version="1.0" standalone="no"?>
<!DOCTYPE svg PUBLIC "-//W3C//DTD SVG 1.1//EN" "http://www.w3.org/Graphics/SVG/1.1/DTD/svg11.dtd">
<svg xmlns="http://www.w3.org/2000/svg">
<metadata>Copyright (C) 2016 by original authors @ fontello.com</metadata>
<defs>
<font id="fontello" horiz-adv-x="1000" >
<font-face font-family="fontello" font-weight="400" font-stretch="normal" units-per-em="1000" ascent="850" descent="-150" />
<missing-glyph horiz-adv-x="1000" />
<glyph glyph-name="align-justify" unicode="&#xe800;" d="M1000 100v-71q0-15-11-25t-25-11h-928q-15 0-25 11t-11 25v71q0 15 11 25t25 11h928q15 0 25-11t11-25z m0 214v-71q0-15-11-25t-25-11h-928q-15 0-25 11t-11 25v71q0 15 11 25t25 11h928q15 0 25-11t11-25z m0 215v-72q0-14-11-25t-25-11h-928q-15 0-25 11t-11 25v72q0 14 11 25t25 10h928q15 0 25-10t11-25z m0 214v-72q0-14-11-25t-25-10h-928q-15 0-25 10t-11 25v72q0 14 11 25t25 11h928q15 0 25-11t11-25z" horiz-adv-x="1000" />

<glyph glyph-name="off" unicode="&#xe801;" d="M857 350q0-87-34-166t-91-137-137-92-166-34-167 34-136 92-92 137-34 166q0 102 45 191t126 151q24 18 54 14t46-28q18-23 14-53t-28-47q-54-41-84-101t-30-127q0-58 23-111t61-91 91-61 111-23 110 23 92 61 61 91 22 111q0 68-30 127t-84 101q-23 18-28 47t14 53q17 24 47 28t53-14q81-61 126-151t45-191z m-357 429v-358q0-29-21-50t-50-21-51 21-21 50v358q0 29 21 50t51 21 50-21 21-50z" horiz-adv-x="857.1" />

<glyph glyph-name="star" unicode="&#xe802;" d="M440 790l120-336 320 0-262-196 94-348-272 208-272-208 94 348-262 196 320 0z" horiz-adv-x="880" />

<glyph glyph-name="star-empty" unicode="&#xe803;" d="M880 454l-262-196 94-348-272 208-272-208 94 348-262 196 320 0 120 336 120-336 320 0z m-440-238l150-124-62 178 144 114-176-4-56 202-54-202-176 4 142-114-62-178z" horiz-adv-x="880" />

<glyph glyph-name="user" unicode="&#xe804;" d="M736 128q204-72 204-122l0-106-940 0 0 106q0 50 204 122 94 34 128 69t34 95q0 22-22 49t-32 73q-2 12-9 18t-14 8-14 17-9 43q0 16 5 26t9 12l4 4q-8 50-12 88-4 54 41 112t157 58 158-58 40-112l-12-88q18-8 18-42-2-28-9-43t-14-17-14-8-9-18q-8-48-31-74t-23-48q0-60 35-95t127-69z" horiz-adv-x="940" />

<glyph glyph-name="user-add" unicode="&#xe805;" d="M620 128q180-64 180-122l0-106-800 0 0 202q36 14 82 26 94 34 129 69t35 95q0 22-23 48t-31 74q-2 12-23 25t-25 61q0 16 5 26t9 12l4 4q-8 50-12 88-6 54 40 112t160 58 160-58 42-112l-14-88q18-8 18-42-2-28-9-43t-14-17-14-8-9-18q-10-46-33-73t-23-49q0-60 36-95t130-69z m230 272l150 0 0-100-150 0 0-150-100 0 0 150-150 0 0 100 150 0 0 150 100 0 0-150z" horiz-adv-x="1000" />

<glyph glyph-name="users" unicode="&#xe806;" d="M1000-90l-224 0 0 150q0 54-30 81t-154 89q40 30 40 84 0 16-13 33t-19 51q-2 8-14 16t-14 42q0 24 12 30-6 34-8 60-4 38 23 78t95 40 96-40 24-78l-8-60q12-6 12-30-2-34-14-42t-14-16q-6-34-19-51t-13-33q0-42 21-66t77-48q112-46 130-80 6-8 9-61t5-101l0-48z m-488 262q182-78 182-124l0-138-694 0 0 184q0 44 84 78 76 32 104 64t28 88q0 20-19 44t-25 68q-2 10-18 22t-20 56q0 14 3 23t7 13l4 2q-6 46-10 82-4 50 33 103t127 53 127-53 33-103l-10-82q14-8 14-38-4-44-20-56t-18-22q-6-44-25-68t-19-44q0-56 28-88t104-64z" horiz-adv-x="1000" />

<glyph glyph-name="home" unicode="&#xe807;" d="M888 336q16-16 11-27t-27-11l-84 0 0-310q0-14-1-21t-8-13-23-6l-204 0 0 310-204 0 0-310-194 0q-28 0-35 10t-7 30l0 310-84 0q-22 0-27 11t11 27l400 402q16 16 38 16t38-16z" horiz-adv-x="900" />

<glyph glyph-name="back" unicode="&#xe808;" d="M750 540q40 0 70-29t30-71l0-290q0-40-30-70t-70-30l-690 0 0 140 650 0 0 210-500 0 0-110-210 180 210 180 0-110 540 0z" horiz-adv-x="850" />

<glyph glyph-name="menu" unicode="&#xe809;" d="M650 400q22 0 36-15t14-35-15-35-35-15l-600 0q-20 0-35 15t-15 35 14 35 36 15l600 0z m-600 100q-20 0-35 15t-15 35 14 35 36 15l600 0q22 0 36-15t14-35-15-35-35-15l-600 0z m600-300q22 0 36-15t14-35-15-35-35-15l-600 0q-20 0-35 15t-15 35 14 35 36 15l600 0z" horiz-adv-x="700" />

<glyph glyph-name="check" unicode="&#xe80a;" d="M249 0q-34 0-56 28l-180 236q-16 24-12 52t26 46 51 14 47-28l118-154 296 474q16 24 43 30t53-8q24-16 30-43t-8-53l-350-560q-20-32-56-32z" horiz-adv-x="667" />

<glyph glyph-name="cancel" unicode="&#xe80b;" d="M452 194q18-18 18-43t-18-43q-18-16-43-16t-43 16l-132 152-132-152q-18-16-43-16t-43 16q-16 18-16 43t16 43l138 156-138 158q-16 18-16 43t16 43q18 16 43 16t43-16l132-152 132 152q18 16 43 16t43-16q18-18 18-43t-18-43l-138-158z" horiz-adv-x="470" />

<glyph glyph-name="attach" unicode="&#xe80c;" d="M244-140q-102 0-170 72-72 70-74 166t84 190l496 496q80 80 174 54 44-12 79-47t47-79q26-96-54-176l-474-474q-40-40-88-46-48-4-80 28-30 24-27 74t47 92l332 334q24 26 50 0t0-50l-332-332q-44-44-20-70 12-8 24-6 24 4 46 26l474 474q50 50 34 108-16 60-76 76-54 14-108-36l-494-494q-66-76-64-143t52-117q50-48 117-50t141 62l496 494q24 24 50 0 26-22 0-48l-496-496q-82-82-186-82z" horiz-adv-x="939" />

<glyph glyph-name="info" unicode="&#xe80d;" d="M352 850q48 0 74-27t26-69q0-50-39-88t-95-38q-48 0-74 26t-24 72q0 46 35 85t97 39z m-206-1000q-100 0-54 178l60 254q14 56 0 56-12 0-54-18t-72-38l-26 44q90 78 189 126t151 48q78 0 36-162l-70-266q-16-64 6-64 44 0 118 60l30-40q-84-86-175-132t-139-46z" horiz-adv-x="460" />

<glyph glyph-name="info-circled" unicode="&#xe80e;" d="M454 810q190 2 326-130t140-322q2-190-131-327t-323-141q-190-2-327 131t-139 323q-4 190 130 327t324 139z m52-152q-42 0-65-24t-23-50q-2-28 15-44t49-16q38 0 61 22t23 54q0 58-60 58z m-120-594q30 0 84 26t106 78l-18 24q-48-36-72-36-14 0-4 38l42 160q26 96-22 96-30 0-89-29t-115-75l16-26q52 34 74 34 12 0 0-34l-36-152q-26-104 34-104z" horiz-adv-x="920" />

<glyph glyph-name="print" unicode="&#xe80f;" d="M66 526q-26 0-22 22 4 10 12 14 2 0 49 17t93 32 58 15l44 0 0 150 380 0 0-150 46 0q12 0 57-15t92-32 49-17q18-8 12-26-4-10-20-10l-850 0z m860-56q20 0 37-19t17-41l0-174q0-22-17-41t-37-19l-100 0 44-250-760 0 44 250-98 0q-20 0-38 19t-18 41l0 174q0 22 18 41t38 19l870 0z m-716-444l560 0-70 324-420 0z" horiz-adv-x="980" />

<glyph glyph-name="vcard" unicode="&#xe810;" d="M900 750q42 0 71-29t29-71l0-600q0-40-29-70t-71-30l-800 0q-40 0-70 30t-30 70l0 600q0 42 30 71t70 29l800 0z m0-700l0 600-800 0 0-600 800 0z m-450 196l0-90-250 0 0 90 250 0z m0 150l0-90-250 0 0 90 250 0z m0 150l0-90-250 0 0 90 250 0z m346-320l4-70-250 0q0 70 6 70 84 22 84 66 0 16-27 56t-27 88q0 110 90 110t90-110q0-48-28-88t-28-56q0-20 21-36t43-22z" horiz-adv-x="1000" />

<glyph glyph-name="pencil" unicode="&#xe811;" d="M203-7l50 51-131 131-51-51v-60h72v-71h60z m291 518q0 12-12 12-5 0-9-4l-303-302q-4-4-4-10 0-12 13-12 5 0 9 4l303 302q3 4 3 10z m-30 107l232-232-464-465h-232v233z m381-54q0-29-20-50l-93-93-232 233 93 92q20 21 50 21 29 0 51-21l131-131q20-22 20-51z" horiz-adv-x="857.1" />

<glyph glyph-name="edit" unicode="&#xe812;" d="M496 189l64 65-85 85-64-65v-31h53v-54h32z m245 402q-9 9-18 0l-196-196q-9-9 0-18t18 0l196 196q9 9 0 18z m45-331v-106q0-67-47-114t-114-47h-464q-67 0-114 47t-47 114v464q0 66 47 113t114 48h464q35 0 65-14 9-4 10-13 2-10-5-16l-27-28q-8-8-18-4-13 3-25 3h-464q-37 0-63-26t-27-63v-464q0-37 27-63t63-27h464q37 0 63 27t26 63v70q0 7 5 12l36 36q8 8 20 4t11-16z m-54 411l161-160-375-375h-161v160z m248-73l-51-52-161 161 51 52q16 15 38 15t38-15l85-85q16-16 16-38t-16-38z" horiz-adv-x="1000" />

<glyph glyph-name="trash-empty" unicode="&#xe813;" d="M286 439v-321q0-8-5-13t-13-5h-36q-8 0-13 5t-5 13v321q0 8 5 13t13 5h36q8 0 13-5t5-13z m143 0v-321q0-8-5-13t-13-5h-36q-8 0-13 5t-5 13v321q0 8 5 13t13 5h36q8 0 13-5t5-13z m142 0v-321q0-8-5-13t-12-5h-36q-8 0-13 5t-5 13v321q0 8 5 13t13 5h36q7 0 12-5t5-13z m72-404v529h-500v-529q0-12 4-22t8-15 6-5h464q2 0 6 5t8 15 4 22z m-375 601h250l-27 65q-4 5-9 6h-177q-6-1-10-6z m518-18v-36q0-8-5-13t-13-5h-54v-529q0-46-26-80t-63-34h-464q-37 0-63 33t-27 79v531h-53q-8 0-13 5t-5 13v36q0 8 5 13t13 5h172l39 93q9 21 31 35t44 15h178q23 0 44-15t30-35l39-93h173q8 0 13-5t5-13z" horiz-adv-x="785.7" />

<glyph glyph-name="doc" unicode="&#xe814;" d="M819 638q16-16 27-42t11-50v-642q0-23-15-38t-38-16h-750q-23 0-38 16t-16 38v892q0 23 16 38t38 16h500q22 0 49-11t42-27z m-248 136v-210h210q-5 17-12 23l-175 175q-6 7-23 12z m215-853v572h-232q-23 0-38 16t-16 37v233h-429v-858h715z" horiz-adv-x="857.1" />

<glyph glyph-name="folder-open" unicode="&#xe815;" d="M1049 319q0-17-18-37l-187-221q-24-28-67-48t-81-20h-607q-19 0-33 7t-15 24q0 17 17 37l188 221q24 28 67 48t80 20h607q19 0 34-7t15-24z m-192 192v-90h-464q-53 0-110-26t-92-67l-188-221-2-3q0 2-1 7t0 7v536q0 51 37 88t88 37h179q51 0 88-37t37-88v-18h303q52 0 88-37t37-88z" horiz-adv-x="1071.4" />

<glyph glyph-name="folder" unicode="&#xe816;" d="M929 511v-393q0-51-37-88t-88-37h-679q-51 0-88 37t-37 88v536q0 51 37 88t88 37h179q51 0 88-37t37-88v-18h375q51 0 88-37t37-88z" horiz-adv-x="928.6" />

<glyph glyph-name="asterisk" unicode="&#xe817;" d="M827 264q26-14 33-43t-7-55l-35-61q-15-26-44-33t-54 7l-149 85v-171q0-29-21-50t-50-22h-71q-29 0-51 22t-21 50v171l-148-85q-26-15-55-7t-43 33l-36 61q-14 26-7 55t34 43l148 86-148 86q-26 14-34 43t7 55l36 61q15 26 43 33t55-7l148-85v171q0 29 21 50t51 22h71q29 0 50-22t21-50v-171l149 85q26 15 54 7t44-33l35-61q15-26 7-55t-33-43l-148-86z" horiz-adv-x="928.6" />

<glyph glyph-name="key" unicode="&#xe818;" d="M464 564q0 45-31 76t-76 31-76-31-31-76q0-23 11-46-23 11-47 11-44 0-76-32t-31-76 31-75 76-32 76 32 31 75q0 24-10 47 23-11 46-11 45 0 76 31t31 76z m475-393q0-9-27-36t-37-28q-5 0-16 9t-20 19-22 22-13 14l-54-53 123-123q15-16 15-38 0-23-21-45t-46-22q-22 0-37 16l-375 374q-98-73-204-73-91 0-148 57t-57 149q0 89 53 174t138 139 175 53q91 0 148-58t57-148q0-105-73-203l198-199 54 54q-2 2-14 14t-23 21-18 21-9 15q0 10 27 37t37 28q7 0 13-6 3-3 26-25t45-44 49-48 40-44 16-23z" horiz-adv-x="1000" />

<glyph glyph-name="docs" unicode="&#xf0c5;" d="M946 636q23 0 38-16t16-38v-678q0-23-16-38t-38-16h-535q-23 0-38 16t-16 38v160h-303q-23 0-38 16t-16 38v375q0 22 11 49t27 42l228 228q15 16 42 27t49 11h232q23 0 38-16t16-38v-183q38 23 71 23h232z m-303-119l-167-167h167v167z m-357 214l-167-167h167v167z m109-361l176 176v233h-214v-233q0-22-15-37t-38-16h-233v-357h286v143q0 22 11 49t27 42z m534-449v643h-215v-232q0-22-15-38t-38-15h-232v-358h500z" horiz-adv-x="1000" />

<glyph glyph-name="doc-text" unicode="&#xf0f6;" d="M819 638q16-16 27-42t11-50v-642q0-23-15-38t-38-16h-750q-23 0-38 16t-16 38v892q0 23 16 38t38 16h500q22 0 49-11t42-27z m-248 136v-210h210q-5 17-12 23l-175 175q-6 7-23 12z m215-853v572h-232q-23 0-38 16t-16 37v233h-429v-858h715z m-572 483q0 7 5 12t13 5h393q8 0 13-5t5-12v-36q0-8-5-13t-13-5h-393q-8 0-13 5t-5 13v36z m411-125q8 0 13-5t5-13v-36q0-8-5-13t-13-5h-393q-8 0-13 5t-5 13v36q0 8 5 13t13 5h393z m0-143q8 0 13-5t5-13v-36q0-8-5-13t-13-5h-393q-8 0-13 5t-5 13v36q0 8 5 13t13 5h393z" horiz-adv-x="857.1" />

<glyph glyph-name="spinner" unicode="&#xf110;" d="M294 72q0-29-21-50t-51-21q-29 0-50 21t-21 50q0 30 21 51t50 21 51-21 21-51z m277-115q0-29-20-50t-51-21-50 21-21 50 21 51 50 21 51-21 20-51z m-392 393q0-30-21-50t-51-21-50 21-21 50 21 51 50 20 51-20 21-51z m670-278q0-29-21-50t-50-21q-30 0-51 21t-20 50 20 51 51 21 50-21 21-51z m-538 556q0-37-26-63t-63-26-63 26-26 63 26 63 63 26 63-26 26-63z m653-278q0-30-21-50t-50-21-51 21-21 50 21 51 51 20 50-20 21-51z m-357 393q0-45-31-76t-76-31-76 31-31 76 31 76 76 31 76-31 31-76z m296-115q0-52-37-88t-88-37q-52 0-88 37t-37 88q0 51 37 88t88 37q51 0 88-37t37-88z" horiz-adv-x="1000" />

<glyph glyph-name="folder-empty" unicode="&#xf114;" d="M857 118v393q0 22-15 38t-38 15h-393q-23 0-38 16t-16 38v36q0 22-15 38t-38 15h-179q-22 0-38-15t-16-38v-536q0-22 16-38t38-16h679q22 0 38 16t15 38z m72 393v-393q0-51-37-88t-88-37h-679q-51 0-88 37t-37 88v536q0 51 37 88t88 37h179q51 0 88-37t37-88v-18h375q51 0 88-37t37-88z" horiz-adv-x="928.6" />

<glyph glyph-name="folder-open-empty" unicode="&#xf115;" d="M994 331q0 19-30 19h-607q-22 0-48-12t-39-29l-164-203q-11-13-11-22 0-20 30-20h607q23 0 48 13t40 29l164 203q10 12 10 22z m-637 90h429v90q0 22-16 38t-38 15h-321q-23 0-38 16t-16 38v36q0 22-15 38t-38 15h-179q-22 0-38-15t-16-38v-476l143 175q25 30 65 49t78 19z m708-90q0-35-25-67l-165-203q-24-30-65-49t-78-19h-607q-51 0-88 37t-37 88v536q0 51 37 88t88 37h179q51 0 88-37t37-88v-18h303q52 0 88-37t37-88v-90h107q30 0 56-13t37-40q8-17 8-37z" horiz-adv-x="1071.4" />

<glyph glyph-name="pencil-squared" unicode="&#xf14b;" d="M225 232l85-85-29-29h-31v53h-54v32z m232 217q7-7-2-16l-163-163q-9-9-16-1-8 7 1 16l163 163q9 9 17 1z m-153-385l303 304-161 161-303-304v-161h161z m339 340l51 51q16 16 16 38t-16 38l-85 85q-15 15-38 15t-37-15l-52-52z m214 214v-536q0-66-47-113t-114-48h-535q-67 0-114 48t-47 113v536q0 66 47 113t114 48h535q67 0 114-48t47-113z" horiz-adv-x="857.1" />

<glyph glyph-name="doc-inv" unicode="&#xf15b;" d="M571 564v264q13-8 21-16l227-228q8-7 16-20h-264z m-71-18q0-22 16-37t38-16h303v-589q0-23-15-38t-38-16h-750q-23 0-38 16t-16 38v892q0 23 16 38t38 16h446v-304z" horiz-adv-x="857.1" />

<glyph glyph-name="doc-text-inv" unicode="&#xf15c;" d="M819 584q8-7 16-20h-264v264q13-8 21-16z m-265-91h303v-589q0-23-15-38t-38-16h-750q-23 0-38 16t-16 38v892q0 23 16 38t38 16h446v-304q0-22 16-37t38-16z m89-411v36q0 8-5 13t-13 5h-393q-8 0-13-5t-5-13v-36q0-8 5-13t13-5h393q8 0 13 5t5 13z m0 143v36q0 8-5 13t-13 5h-393q-8 0-13-5t-5-13v-36q0-8 5-13t13-5h393q8 0 13 5t5 13z m0 143v36q0 7-5 12t-13 5h-393q-8 0-13-5t-5-12v-36q0-8 5-13t13-5h393q8 0 13 5t5 13z" horiz-adv-x="857.1" />

<glyph glyph-name="dropbox" unicode="&#xf16b;" d="M224 456l276-171-191-159-273 178z m551-310v-60l-274-164v-1l0 1-1-1v1l-273 164v60l82-54 191 159v1l1-1 0 1v-1l192-159z m-466 638l191-159-276-169-188 150z m467-328l188-152-273-178-191 159z m-85 328l273-178-188-150-276 169z" horiz-adv-x="1000" />

<glyph glyph-name="newspaper" unicode="&#xf1ea;" d="M571 564h-214v-214h214v214z m72-357v-71h-357v71h357z m0 429v-357h-357v357h357z m357-429v-71h-286v71h286z m0 143v-71h-286v71h286z m0 143v-72h-286v72h286z m0 143v-72h-286v72h286z m-857-536v536h-72v-536q0-14 11-25t25-11 25 11 11 25z m928 0v607h-857v-607q0-18-6-36h828q14 0 25 11t10 25z m72 679v-679q0-45-31-76t-76-31h-929q-44 0-76 31t-31 76v607h143v72h1000z" horiz-adv-x="1142.9" />

<glyph glyph-name="trash" unicode="&#xf1f8;" d="M286 82v393q0 8-5 13t-13 5h-36q-8 0-13-5t-5-13v-393q0-8 5-13t13-5h36q8 0 13 5t5 13z m143 0v393q0 8-5 13t-13 5h-36q-8 0-13-5t-5-13v-393q0-8 5-13t13-5h36q8 0 13 5t5 13z m142 0v393q0 8-5 13t-12 5h-36q-8 0-13-5t-5-13v-393q0-8 5-13t13-5h36q7 0 12 5t5 13z m-303 554h250l-27 65q-4 5-9 6h-177q-6-1-10-6z m518-18v-36q0-8-5-13t-13-5h-54v-529q0-46-26-80t-63-34h-464q-37 0-63 33t-27 79v531h-53q-8 0-13 5t-5 13v36q0 8 5 13t13 5h172l39 93q9 21 31 35t44 15h178q23 0 44-15t30-35l39-93h173q8 0 13-5t5-13z" horiz-adv-x="785.7" />
</font>
</defs>
</svg>